# Top 3 Lifespan's by Host

Lifespan is the total uptime + the total downtime of a host.

```
+-----+----------------+----------------------------+
| Pos |           Host |                   Lifespan |
+-----+----------------+----------------------------+
|  1. |       dionysus | 8 years, 6 months, 17 days |
|  2. |         uranus | 7 years, 2 months, 16 days |
|  3. |  alphacentauri | 6 years, 9 months, 13 days |
+-----+----------------+----------------------------+
```
