Top 3 Boots's by Host

 Boots is the total number of
host boots over the entire
lifespan.

+-----+----------------+-------+
| Pos |           Host | Boots |
+-----+----------------+-------+
|  1. |  alphacentauri |   671 |
|  2. |           mars |   207 |
|  3. |       callisto |   153 |
+-----+----------------+-------+
