# Top 3 Boots's by Uname:

```
+-----+----------+-------+
| Pos |    Uname | Boots |
+-----+----------+-------+
|  1. | *FreeBSD |   872 |
|  2. |   *Linux |   867 |
|  3. | *OpenBSD |    44 |
+-----+----------+-------+
```
